------------------- Tasks -------------------
   Task Time  |   Task Type   |   Duration
       30     |       T0      |      1
       4      |       T1      |      1
       5      |       T0      |      3
       6      |       T2      |      4
       8      |       T1      |      8
       2      |       T0      |      2
       3      |       T2      |      4
       3      |       T0      |      1
       4      |       T0      |      9
       3      |       T2      |      10
       3      |       T0      |      3
       4      |       T1      |      8
       5      |       T0      |      9
       6      |       T2      |      1
       8      |       T0      |      3
       2      |       T0      |      4
       3      |       T1      |      1
       3      |       T2      |      5
       4      |       T2      |      20
       3      |       T0      |      1
---------------------------------------------

------------------- Tasks -------------------
   Task Time  |   Task Type   |   Duration
       1      |       T0      |      1
       1      |       T1      |      1
       1      |       T2      |      1
       2      |       T0      |      1
       2      |       T1      |      1
       2      |       T2      |      1
       3      |       T0      |      1
       3      |       T1      |      1
       3      |       T2      |      1
---------------------------------------------

